{
  "count": 7,
  "limit": 100,
  "results": [
    {
      "serviceId": "90001001",
      "providerId": "IM00000022",
      "providerName": "DFW Open MRI",
      "practice": null,
      "providerEmail": "",
      "providerPhone": "(214) 320-1400",
      "providerAddressLine1": "3840 W Northwest Hwy #400",
      "providerAddressLine2": "",
      "providerCity": "Dallas",
      "providerState": "TX ",
      "providerZipcode": "75220",
      "age": "",
      "gender": "",
      "latitude": "32.8603767",
      "longitude": "-96.8516421",
      "npi": null,
      "facilityFlag": true,
      "inPracticeSince": "",
      "specialty": "Imaging",
      "preferredFlag": true,
      "logo": null,
      "inTheMedibookrFlag": null,
      "status": "VERIFIED",
      "distance": 13.78008454064492,
      "rating": "3.0000",
      "ratingCount": 1
    },
    {
      "serviceId": "90001001",
      "providerId": "IM00000023",
      "providerName": "Dfw Open MRI Garland",
      "practice": null,
      "providerEmail": "",
      "providerPhone": "(214) 320-1400",
      "providerAddressLine1": "10611 Garland Road Suite 101 ",
      "providerAddressLine2": "",
      "providerCity": "Dallas",
      "providerState": "TX ",
      "providerZipcode": "75218",
      "age": "",
      "gender": "",
      "latitude": "32.8444776",
      "longitude": "-96.6900961",
      "npi": null,
      "facilityFlag": true,
      "inPracticeSince": "",
      "specialty": "Imaging",
      "preferredFlag": true,
      "logo": null,
      "inTheMedibookrFlag": null,
      "status": "VERIFIED",
      "distance": 12.430708086144172,
      "rating": "2.0000",
      "ratingCount": 1
    },
    {
      "serviceId": "90001001",
      "providerId": "IP00004754",
      "providerName": "Hemric, Ned D Jr, MD",
      "practice": null,
      "providerEmail": "",
      "providerPhone": "(580) 564-7338",
      "providerAddressLine1": "701 Hwy 70 E?Kingston  ",
      "providerAddressLine2": "",
      "providerCity": "Kingston ",
      "providerState": "OK",
      "providerZipcode": "73439",
      "age": "",
      "gender": "",
      "latitude": "33.9975283",
      "longitude": "-96.7087265",
      "npi": null,
      "facilityFlag": false,
      "inPracticeSince": "33",
      "specialty": "Bariatric Surgery; General Surgery",
      "preferredFlag": false,
      "logo": null,
      "inTheMedibookrFlag": null,
      "status": "VERIFIED",
      "distance": 67.20996477412692,
      "rating": "0.0000",
      "ratingCount": 1
    },
    {
      "serviceId": "90001001",
      "providerId": "IP00008020",
      "providerName": "Nagra, Amrita, DO",
      "practice": null,
      "providerEmail": "",
      "providerPhone": "(214) 456-9250",
      "providerAddressLine1": "1935 Medical District Dr?  ",
      "providerAddressLine2": "",
      "providerCity": "Dallas",
      "providerState": "TX",
      "providerZipcode": "75235",
      "age": "",
      "gender": "",
      "latitude": "32.8095255",
      "longitude": "-96.8376124",
      "npi": null,
      "facilityFlag": false,
      "inPracticeSince": "5",
      "specialty": "Primary Care Physician; Pediatrics",
      "preferredFlag": false,
      "logo": null,
      "inTheMedibookrFlag": null,
      "status": "VERIFIED",
      "distance": 16.399612688675695,
      "rating": "4.0000",
      "ratingCount": 1
    },
    {
      "serviceId": "90001001",
      "providerId": "IM00000106",
      "providerName": "S1 Open MRI",
      "practice": null,
      "providerEmail": "",
      "providerPhone": "(817) 294-2400",
      "providerAddressLine1": "7440 Oakmont Blvd",
      "providerAddressLine2": "",
      "providerCity": "Fort Worth",
      "providerState": "TX ",
      "providerZipcode": "76132",
      "age": "",
      "gender": "",
      "latitude": "32.6622776",
      "longitude": "-97.4209879",
      "npi": null,
      "facilityFlag": true,
      "inPracticeSince": "",
      "specialty": "Imaging",
      "preferredFlag": true,
      "logo": null,
      "inTheMedibookrFlag": null,
      "status": "VERIFIED",
      "distance": 47.951917939810826,
      "rating": "5.0000",
      "ratingCount": 1
    },
    {
      "serviceId": "90001001",
      "providerId": "IP00010356",
      "providerName": "Semrin, Mhammad G, MD",
      "practice": null,
      "providerEmail": "",
      "providerPhone": "(817) 730-5437",
      "providerAddressLine1": "470 E State Hwy 114?",
      "providerAddressLine2": "",
      "providerCity": "Southlake",
      "providerState": "TX",
      "providerZipcode": "",
      "age": "48",
      "gender": "M",
      "latitude": "32.9592039",
      "longitude": "-97.1426894",
      "npi": null,
      "facilityFlag": false,
      "inPracticeSince": "17",
      "specialty": "Pediatric Gastroenterology",
      "preferredFlag": false,
      "logo": null,
      "inTheMedibookrFlag": null,
      "status": "VERIFIED",
      "distance": 25.185068351977662,
      "rating": "0.0000",
      "ratingCount": 1
    }
  ]
}
